{
  "extras": [
    "lazyvim.plugins.extras.lang.java",
    "lazyvim.plugins.extras.lang.json",
    "lazyvim.plugins.extras.lang.rust",
    "lazyvim.plugins.extras.lang.tailwind",
    "lazyvim.plugins.extras.lang.yaml"
  ],
  "news": {
    "NEWS.md": "6520"
  },
  "version": 6
}